Como construir uma curva de dose resposta através do programa R
…
## Análise de dose resposta

.panelset[
.panel[.panel-name[Dados]

```r
library(RCurl)
library(tidyverse)
df_path <- getURL("https://raw.githubusercontent.com/maxwelco/workshop-esalq/main/data/dose_resposta.csv")
dose <- read_csv(df_path)
dose
```

```
## # A tibble: 144 × 6
##    biotype run     rep  rate control biomass
##    <chr>   <chr> <dbl> <dbl>   <dbl>   <dbl>
##  1 R       I         1   0         0    0.58
##  2 R       I         2   0         0    0.54
##  3 R       I         3   0         0    0.41
##  4 R       I         4   0         0    0.5 
##  5 R       I         1  13.1       5    0.5 
##  6 R       I         2  13.1       5    0.64
##  7 R       I         3  13.1      10    0.47
##  8 R       I         4  13.1      10    0.72
##  9 R       I         1  26.2      15    0.52
## 10 R       I         2  26.2      10    0.54
## # … with 134 more rows
```
…
